Run a given function or formula expression on a simpr_mod object and tidy the output. — apply_fits • simpr
…
    tidy_fits,
  glance_fits

    Examples

set.seed(100)
logit_fit = specify(a = ~ sample(0:1, size = n, replace = TRUE),
        b = ~ a + rlnorm(n)) %>%
  define(n = c(40, 50)) %>%
  generate(1) %>%
  fit(logit = ~ glm(a ~ b, family = "binomial"))

logit_fit %>%
  apply_fits(broom::augment)
#> # A tibble: 90 × 12
#>    .sim_id     n   rep Source     a     b .fitted .resid .std.resid   .hat
#>      <int> <dbl> <int> <chr>  <int> <dbl>   <dbl>  <dbl>      <dbl>  <dbl>
#>  1       1    40     1 logit      1 1.14   -0.919  1.58       1.61  0.0304
#>  2       1    40     1 logit      1 1.88   -0.764  1.51       1.53  0.0259
#>  3       1    40     1 logit      0 0.653  -1.02  -0.784     -0.799 0.0370
#>  4       1    40     1 logit      1 4.26   -0.261  1.29       1.34  0.0713
#>  5       1    40     1 logit      1 1.18   -0.911  1.58       1.60  0.0300
#>  6       1    40     1 logit      0 1.64   -0.815 -0.856     -0.868 0.0265
#>  7       1    40     1 logit      0 6.10    0.127 -1.23      -1.36  0.174 
#>  8       1    40     1 logit      0 1.46   -0.853 -0.843     -0.855 0.0276
#>  9       1    40     1 logit      1 1.33   -0.879  1.57       1.59  0.0285
#> 10       1    40     1 logit      0 1.82   -0.776 -0.870     -0.882 0.0259
#> # … with 80 more rows, and 2 more variables: .sigma <dbl>, .cooksd <dbl>

## Arguments to the function can be passed in ...
logit_fit %>%
  apply_fits(broom::augment, se_fit = TRUE)
#> # A tibble: 90 × 13
#>    .sim_id     n   rep Source     a     b .fitted .se.fit .resid .std.resid
#>      <int> <dbl> <int> <chr>  <int> <dbl>   <dbl>   <dbl>  <dbl>      <dbl>
#>  1       1    40     1 logit      1 1.14   -0.919   0.386  1.58       1.61 
#>  2       1    40     1 logit      1 1.88   -0.764   0.345  1.51       1.53 
#>  3       1    40     1 logit      0 0.653  -1.02    0.436 -0.784     -0.799
#>  4       1    40     1 logit      1 4.26   -0.261   0.539  1.29       1.34 
#>  5       1    40     1 logit      1 1.18   -0.911   0.383  1.58       1.60 
#>  6       1    40     1 logit      0 1.64   -0.815   0.353 -0.856     -0.868
#>  7       1    40     1 logit      0 6.10    0.127   0.837 -1.23      -1.36 
#>  8       1    40     1 logit      0 1.46   -0.853   0.363 -0.843     -0.855
#>  9       1    40     1 logit      1 1.33   -0.879   0.371  1.57       1.59 
#> 10       1    40     1 logit      0 1.82   -0.776   0.347 -0.870     -0.882
#> # … with 80 more rows, and 3 more variables: .hat <dbl>, .sigma <dbl>,
#> #   .cooksd <dbl>
…
