Fit models to the simulated data — fit • simpr
…
linear_fit # first fit element also prints

#> full tibble
#> --------------------------
#> # A tibble: 4 × 5
#>   .sim_id     n   rep sim                linear
#>     <int> <int> <int> <list>             <list>
#> 1       1   100     1 <tibble [100 × 2]> <lm>  
#> 2       2   101     1 <tibble [101 × 2]> <lm>  
#> 3       3   100     2 <tibble [100 × 2]> <lm>  
#> 4       4   101     2 <tibble [101 × 2]> <lm>  
#> 
#> sim[[1]]
#> --------------------------
#> # A tibble: 100 × 2
#>       x1     y
#>    <dbl> <dbl>
#>  1 1.88   9.89
#>  2 2.86  14.1 
#>  3 1.57   9.88
#>  4 3.38  15.1 
#>  5 2.26  11.6 
#>  6 1.29   8.71
#>  7 0.729  7.13
#>  8 3.04  14.4 
#>  9 1.43  10.4 
#> 10 1.47  10.7 
#> # … with 90 more rows
…
#> full tibble
#> --------------------------
#> # A tibble: 4 × 6
#>   .sim_id     n   rep sim                linear quadratic
#>     <int> <int> <int> <list>             <list> <list>   
#> 1       1   100     1 <tibble [100 × 2]> <lm>   <lm>     
#> 2       2   101     1 <tibble [101 × 2]> <lm>   <lm>     
#> 3       3   100     2 <tibble [100 × 2]> <lm>   <lm>     
#> 4       4   101     2 <tibble [101 × 2]> <lm>   <lm>     
#> 
#> sim[[1]]
#> --------------------------
#> # A tibble: 100 × 2
#>       x1     y
#>    <dbl> <dbl>
#>  1 1.88   9.89
#>  2 2.86  14.1 
#>  3 1.57   9.88
#>  4 3.38  15.1 
#>  5 2.26  11.6 
#>  6 1.29   8.71
#>  7 0.729  7.13
#>  8 3.04  14.4 
#>  9 1.43  10.4 
#> 10 1.47  10.7 
#> # … with 90 more rows
…
add_five_data

#> full tibble
#> --------------------------
#> # A tibble: 4 × 5
#>   .sim_id     n   rep sim                add_five      
#>     <int> <int> <int> <list>             <list>        
#> 1       1   100     1 <tibble [100 × 2]> <df [100 × 2]>
#> 2       2   101     1 <tibble [101 × 2]> <df [101 × 2]>
#> 3       3   100     2 <tibble [100 × 2]> <df [100 × 2]>
#> 4       4   101     2 <tibble [101 × 2]> <df [101 × 2]>
#> 
#> sim[[1]]
#> --------------------------
#> # A tibble: 100 × 2
#>       x1     y
#>    <dbl> <dbl>
#>  1 1.88   9.89
#>  2 2.86  14.1 
#>  3 1.57   9.88
#>  4 3.38  15.1 
#>  5 2.26  11.6 
#>  6 1.29   8.71
#>  7 0.729  7.13
#>  8 3.04  14.4 
#>  9 1.43  10.4 
#> 10 1.47  10.7 
#> # … with 90 more rows
#> 
#> add_five[[1]]
#> --------------------------
#> # A tibble: 100 × 2
#>       x1     y
#>    <dbl> <dbl>
#>  1  6.88  14.9
#>  2  7.86  19.1
#>  3  6.57  14.9
#>  4  8.38  20.1
#>  5  7.26  16.6
#>  6  6.29  13.7
#>  7  5.73  12.1
#>  8  8.04  19.4
#>  9  6.43  15.4
#> 10  6.47  15.7
#> # … with 90 more rows
…
