Fit models to the simulated data — fit.simpr_tibble • simpr
…
linear_fit # first fit element also prints
#> full tibble
#> --------------------------
#> # A tibble: 4 × 5
#>   .sim_id     n   rep sim                linear
#>     <int> <int> <int> <list>             <list>
#> 1       1   100     1 <tibble [100 × 2]> <lm>  
#> 2       2   101     1 <tibble [101 × 2]> <lm>  
#> 3       3   100     2 <tibble [100 × 2]> <lm>  
#> 4       4   101     2 <tibble [101 × 2]> <lm>  
#> 
#> sim[[1]]
#> --------------------------
#> # A tibble: 100 × 2
#>        a     b
#>    <dbl> <dbl>
#>  1 1.12   7.74
#>  2 4.62  18.3 
#>  3 2.41  12.7 
#>  4 2.96  14.1 
#>  5 0.711  6.87
#>  6 2.06  10.5 
#>  7 2.08  12.0 
#>  8 2.56  12.7 
#>  9 2.56  12.8 
#> 10 0.180  5.80
#> # … with 90 more rows
…
## Two columns, one for each model
multi_fit
#> full tibble
#> --------------------------
#> # A tibble: 4 × 6
#>   .sim_id     n   rep sim                linear quadratic
#>     <int> <int> <int> <list>             <list> <list>   
#> 1       1   100     1 <tibble [100 × 2]> <lm>   <lm>     
#> 2       2   101     1 <tibble [101 × 2]> <lm>   <lm>     
#> 3       3   100     2 <tibble [100 × 2]> <lm>   <lm>     
#> 4       4   101     2 <tibble [101 × 2]> <lm>   <lm>     
#> 
#> sim[[1]]
#> --------------------------
#> # A tibble: 100 × 2
#>        a     b
#>    <dbl> <dbl>
#>  1 1.12   7.74
#>  2 4.62  18.3 
#>  3 2.41  12.7 
#>  4 2.96  14.1 
#>  5 0.711  6.87
#>  6 2.06  10.5 
#>  7 2.08  12.0 
#>  8 2.56  12.7 
#>  9 2.56  12.8 
#> 10 0.180  5.80
#> # … with 90 more rows
…
add_five_data
#> full tibble
#> --------------------------
#> # A tibble: 4 × 5
#>   .sim_id     n   rep sim                add_five      
#>     <int> <int> <int> <list>             <list>        
#> 1       1   100     1 <tibble [100 × 2]> <df [100 × 2]>
#> 2       2   101     1 <tibble [101 × 2]> <df [101 × 2]>
#> 3       3   100     2 <tibble [100 × 2]> <df [100 × 2]>
#> 4       4   101     2 <tibble [101 × 2]> <df [101 × 2]>
#> 
#> sim[[1]]
#> --------------------------
#> # A tibble: 100 × 2
#>        a     b
#>    <dbl> <dbl>
#>  1 1.12   7.74
#>  2 4.62  18.3 
#>  3 2.41  12.7 
#>  4 2.96  14.1 
#>  5 0.711  6.87
#>  6 2.06  10.5 
#>  7 2.08  12.0 
#>  8 2.56  12.7 
#>  9 2.56  12.8 
#> 10 0.180  5.80
#> # … with 90 more rows
#> 
#> add_five[[1]]
#> --------------------------
#> # A tibble: 100 × 2
#>        a     b
#>    <dbl> <dbl>
#>  1  6.12  12.7
#>  2  9.62  23.3
#>  3  7.41  17.7
#>  4  7.96  19.1
#>  5  5.71  11.9
#>  6  7.06  15.5
#>  7  7.08  17.0
#>  8  7.56  17.7
#>  9  7.56  17.8
#> 10  5.18  10.8
#> # … with 90 more rows
…
