Generate simulated data from specification — generate • simpr
…
 ## Changing reps will change the number of replications and thus the number of
 ## rows in the output
 meta_list_2 = specify(x = ~ MASS::mvrnorm(n, rep(0, 2), Sigma = S)) %>%
  define(n = c(10, 20, 30),
       S = list(independent = diag(2), correlated = diag(2) + 2)) %>%
  generate(4)

#> Formula specification for 'x' detected. Assuming 'x' is the first formula. To hide this message, or to avoid moving this formula first, use a different variable name.

 meta_list_2

#> full tibble
#> --------------------------
#> # A tibble: 24 × 6
#>    .sim_id     n S_index       rep S             sim              
#>      <int> <dbl> <chr>       <int> <list>        <list>           
#>  1       1    10 independent     1 <dbl [2 × 2]> <tibble [10 × 2]>
#>  2       2    20 independent     1 <dbl [2 × 2]> <tibble [20 × 2]>
#>  3       3    30 independent     1 <dbl [2 × 2]> <tibble [30 × 2]>
#>  4       4    10 correlated      1 <dbl [2 × 2]> <tibble [10 × 2]>
#>  5       5    20 correlated      1 <dbl [2 × 2]> <tibble [20 × 2]>
#>  6       6    30 correlated      1 <dbl [2 × 2]> <tibble [30 × 2]>
#>  7       7    10 independent     2 <dbl [2 × 2]> <tibble [10 × 2]>
#>  8       8    20 independent     2 <dbl [2 × 2]> <tibble [20 × 2]>
#>  9       9    30 independent     2 <dbl [2 × 2]> <tibble [30 × 2]>
#> 10      10    10 correlated      2 <dbl [2 × 2]> <tibble [10 × 2]>
#> # … with 14 more rows
…
 ## Fitting, tidying functions can be included in this step by running those functions and then
 ## generate.  This can save computation time when doing large
 ## simulations, especially with parallel processing
 meta_list_generate_after = specify(x = ~ MASS::mvrnorm(n, rep(0, 2), Sigma = S)) %>%
  define(n = c(10, 20, 30),
       S = list(independent = diag(2), correlated = diag(2) + 2)) %>%
  fit(lm = ~ lm(x_2 ~ x_1, data = .)) %>%
  tidy_fits %>%
  generate(4)

#> Formula specification for 'x' detected. Assuming 'x' is the first formula. To hide this message, or to avoid moving this formula first, use a different variable name.

  meta_list_generate_after

#> # A tibble: 48 × 10
#>    .sim_id     n S_index   rep Source term  estimate std.error statistic p.value
#>      <int> <dbl> <chr>   <int> <chr>  <chr>    <dbl>     <dbl>     <dbl>   <dbl>
#>  1       1    10 indepe…     1 lm     (Int… -0.251       0.260   -0.964  3.64e-1
#>  2       1    10 indepe…     1 lm     x_1   -0.268       0.331   -0.810  4.42e-1
#>  3       2    20 indepe…     1 lm     (Int…  0.364       0.172    2.12   4.86e-2
#>  4       2    20 indepe…     1 lm     x_1   -0.407       0.184   -2.21   4.04e-2
#>  5       3    30 indepe…     1 lm     (Int…  0.00881     0.171    0.0514 9.59e-1
#>  6       3    30 indepe…     1 lm     x_1   -0.321       0.172   -1.87   7.24e-2
#>  7       4    10 correl…     1 lm     (Int… -0.577       0.451   -1.28   2.37e-1
#>  8       4    10 correl…     1 lm     x_1    0.332       0.460    0.722  4.91e-1
#>  9       5    20 correl…     1 lm     (Int… -0.0493      0.206   -0.239  8.14e-1
#> 10       5    20 correl…     1 lm     x_1    0.741       0.120    6.17   8.02e-6
#> # … with 38 more rows
…
