Generate simulated data from specification — generate.simpr_spec • simpr
…
 ## Changing .reps will change the number of replications and thus the number of
 ## rows in the output
 meta_list_2 = specify(a = ~ MASS::mvrnorm(n, rep(0, 2), Sigma = S)) %>%
  define(n = c(10, 20, 30),
       S = list(independent = diag(2), correlated = diag(2) + 2)) %>%
  generate(4)

 meta_list_2

#> full tibble
#> --------------------------
#> # A tibble: 24 × 6
#>    .sim_id     n S_index       rep S             sim              
#>      <int> <dbl> <chr>       <int> <list>        <list>           
#>  1       1    10 independent     1 <dbl [2 × 2]> <tibble [10 × 2]>
#>  2       2    20 independent     1 <dbl [2 × 2]> <tibble [20 × 2]>
#>  3       3    30 independent     1 <dbl [2 × 2]> <tibble [30 × 2]>
#>  4       4    10 correlated      1 <dbl [2 × 2]> <tibble [10 × 2]>
#>  5       5    20 correlated      1 <dbl [2 × 2]> <tibble [20 × 2]>
#>  6       6    30 correlated      1 <dbl [2 × 2]> <tibble [30 × 2]>
#>  7       7    10 independent     2 <dbl [2 × 2]> <tibble [10 × 2]>
#>  8       8    20 independent     2 <dbl [2 × 2]> <tibble [20 × 2]>
#>  9       9    30 independent     2 <dbl [2 × 2]> <tibble [30 × 2]>
#> 10      10    10 correlated      2 <dbl [2 × 2]> <tibble [10 × 2]>
#> # … with 14 more rows
…
 ## Fitting, tidying functions can be included in this step by running those functions and then
 ## generate.  This can save computation time when doing large
 ## simulations, especially with parallel processing
 meta_list_generate_after = specify(a = ~ MASS::mvrnorm(n, rep(0, 2), Sigma = S)) %>%
  define(n = c(10, 20, 30),
       S = list(independent = diag(2), correlated = diag(2) + 2)) %>%
  fit(lm = ~ lm(a_2 ~ a_1, data = .)) %>%
  tidy_fits %>%
  generate(4)

  meta_list_generate_after

#> # A tibble: 48 × 10
#>    .sim_id     n S_index   rep Source term  estimate std.error statistic p.value
#>      <int> <dbl> <chr>   <int> <chr>  <chr>    <dbl>     <dbl>     <dbl>   <dbl>
#>  1       1    10 indepe…     1 lm     (Int…   0.439      0.411     1.07  3.17e-1
#>  2       1    10 indepe…     1 lm     a_1    -0.390      0.497    -0.784 4.55e-1
#>  3       2    20 indepe…     1 lm     (Int…  -0.0332     0.218    -0.152 8.81e-1
#>  4       2    20 indepe…     1 lm     a_1    -0.295      0.216    -1.36  1.89e-1
#>  5       3    30 indepe…     1 lm     (Int…   0.252      0.206     1.23  2.30e-1
#>  6       3    30 indepe…     1 lm     a_1    -0.0568     0.186    -0.306 7.62e-1
#>  7       4    10 correl…     1 lm     (Int…   0.138      0.422     0.327 7.52e-1
#>  8       4    10 correl…     1 lm     a_1     1.10       0.303     3.64  6.57e-3
#>  9       5    20 correl…     1 lm     (Int…  -0.421      0.316    -1.33  1.99e-1
#> 10       5    20 correl…     1 lm     a_1     0.863      0.195     4.43  3.20e-4
#> # … with 38 more rows
…
